MMMMMMMMMMMMMMMMMMMMMMMMMMMMMM
M                           BM
M             D E           BM
M            MMME           BM
M               E            M
M               E            M
M         E     E            M
M         EMMMMMMM           M
M         E                  M
M         E           E      M
MSMM      MMMMMMMMMMMME      M
MR          B         E      M
MR                    E      M
MR      H             E    MSM
MMMMMMMMMMMMMMMMMMMMMMMMMMMMMM